{
   "pagination": {
      "page": 2,
      "pages": 6,
      "total": 64,
      "limit": 12,
      "prev": "/fish-species?limit=12&page=1",
      "next": "/fish-species?limit=12&page=3",
      "first": "/fish-species?limit=12&page=1",
      "last": "/fish-species?limit=12&page=6" 
   },
  "results": [
    {
      "id": 1,
      "common_name": "largemouth bass",
      "scientific_name": "micropterus salmoides",
      "type": "bass",
      "environment": "freshwater",
      "distribution": "na",
      "length": 97,
      "weight": 10.1,
      "depth_min": 0,
      "depth_max": 6,
      "temp_min": 42,
      "temp_max": 92,
      "image_attribution": "<a href=\"https://commons.wikimedia.org/wiki/File:FMIB_43013_Large-Mouthed_Black_Bass_(Micropterus_salmoides).jpeg\">University of Washington</a>, Public domain, via Wikimedia Commons",
      "ref": "Page, L.M. and B.M. Burr, 2011. A field guide to freshwater fishes of North America north of Mexico. Boston : Houghton Mifflin Harcourt, 663p."
    },
    {
      "id": 2,
      "common_name": "smallmouth bass",
      "scientific_name": "micropterus dolomieu",
      "type": "bass",
      "environment": "freshwater",
      "distribution": "na",
      "length": 68,
      "weight": 5.4,
      "depth_min": 1,
      "depth_max": 7,
      "temp_min": 42,
      "temp_max": 86,
      "image_attribution": "<a href=\"https://commons.wikimedia.org/wiki/File:Smallmouth_bass.png\">Ianaré Sévi (for modifications only)Duane Raver, U.S. Fish and Wildlife Service</a>, Public domain, via Wikimedia Commons",
      "ref": "Page, L.M. and B.M. Burr, 2011. A field guide to freshwater fishes of North America north of Mexico. Boston : Houghton Mifflin Harcourt, 663p."
    },
    {
      "id": 3,
      "common_name": "spotted bass",
      "scientific_name": "micropterus punctulatus",
      "type": "bass",
      "environment": "freshwater",
      "distribution": "na",
      "length": 63.5,
      "weight": 4.7,
      "depth_min": 3,
      "depth_max": 9,
      "temp_min": 43,
      "temp_max": 87,
      "image_attribution": "AI-generated image (ChatGPT), OpenAI",
      "ref": "Page, L.M. and B.M. Burr, 1991. A field guide to freshwater fishes of North America north of Mexico. Houghton Mifflin Company, Boston. 432p."
    },
    {
      "id": 4,
      "common_name": "guadalupe bass",
      "scientific_name": "micropterus treculii",
      "type": "bass",
      "environment": "freshwater",
      "distribution": "na",
      "length": 46.4,
      "weight": 1.7,
      "depth_min": 1,
      "depth_max": null,
      "temp_min": null,
      "temp_max": null,
      "image_attribution": "AI-generated image (ChatGPT), OpenAI",
      "ref": "Page, L.M. and B.M. Burr, 1991. A field guide to freshwater fishes of North America north of Mexico. Houghton Mifflin Company, Boston. 432p."
    },
    {
      "id": 5,
      "common_name": "white bass",
      "scientific_name": "morone chrysops",
      "type": "bass",
      "environment": "freshwater",
      "distribution": "na",
      "length": 45,
      "weight": 3.1,
      "depth_min": 0,
      "depth_max": 13,
      "temp_min": 51,
      "temp_max": 87,
      "image_attribution": "Public domain, via <a href=\"https://www.rawpixel.com/image/6024812/photo-image-public-domain-art-illustration\">RawPixel</a>",
      "ref": "Page, L.M. and B.M. Burr, 2011. A field guide to freshwater fishes of North America north of Mexico. Boston : Houghton Mifflin Harcourt, 663p."
    },
    {
      "id": 6,
      "common_name": "yellow bass",
      "scientific_name": "morone mississippiensis",
      "type": "striper",
      "environment": "freshwater",
      "distribution": "na",
      "length": 46,
      "weight": 11,
      "depth_min": 0,
      "depth_max": 15,
      "temp_min": 42,
      "temp_max": 94,
      "image_attribution": "<a href=\\\"https://commons.wikimedia.org/wiki/File:Yellow_Bass.gif\\\">Iowa Department of Natural Resources</a>, Attribution, via Wikimedia Commons, Image Upscaled",
      "ref": "Page, L.M. and B.M. Burr, 1991. A field guide to freshwater fishes of North America north of Mexico. Houghton Mifflin Company, Boston. 432p."
    },
    {
      "id": 7,
      "common_name": "striped bass",
      "scientific_name": "morone saxatilis",
      "type": "striper",
      "environment": "freshwater",
      "distribution": "na",
      "length": 200,
      "weight": 57,
      "depth_min": 30,
      "depth_max": null,
      "temp_min": 40,
      "temp_max": 87,
      "image_attribution": "<a href=\"https://www.flickr.com/photos/153584064@N07/38977334251\">Sherman F. Denton</a>, Public Domain, via RawPixel",
      "ref": "Heemstra, P.C., 1995. Moronidae. Lubinas. p. 1289-1292. In W. Fischer, F. Krupp, W. Schneider, C. Sommer, K.E. Carpenter and V. Niem (eds.) Guia FAO para Identification de Especies para lo Fines de la Pesca. Pacifico Centro-Oriental. 3 Vols. FAO, Rome."
    },
    {
      "id": 8,
      "common_name": "blue catfish",
      "scientific_name": "ictalurus furcatus",
      "type": "catfish",
      "environment": "freshwater",
      "distribution": "na",
      "length": 165,
      "weight": 68,
      "depth_min": null,
      "depth_max": 50,
      "temp_min": 40,
      "temp_max": 84,
      "image_attribution": "By Duane Raver - U.S. Fish and Wildlife Service - Scan of art commissioned by the Fish and Wildlife Service. Art is kept at DC Booth Fish Hatchery in Spearfish, SD. Originates from the National Digital Library of the United States Fish and Wildlife, Public Domain, Image Upscaled ",
      "ref": "Page, L.M. and B.M. Burr, 2011. A field guide to freshwater fishes of North America north of Mexico. Boston : Houghton Mifflin Harcourt, 663p."
    },
    {
      "id": 9,
      "common_name": "channel catfish",
      "scientific_name": "ictalurus punctatus",
      "type": "catfish",
      "environment": "freshwater",
      "distribution": "na",
      "length": 132,
      "weight": 26.3,
      "depth_min": 0,
      "depth_max": 15,
      "temp_min": 41,
      "temp_max": 90,
      "image_attribution": "",
      "ref": "Page, L.M. and B.M. Burr, 2011. A field guide to freshwater fishes of North America north of Mexico. Boston : Houghton Mifflin Harcourt, 663p."
    },
    {
      "id": 10,
      "common_name": "flathead catfish",
      "scientific_name": "pylodictis olivaris",
      "type": "catfish",
      "environment": "freshwater",
      "distribution": "na",
      "length": 155,
      "weight": 55.8,
      "depth_min": 3,
      "depth_max": 6,
      "temp_min": 57,
      "temp_max": 93,
      "image_attribution": "",
      "ref": "Page, L.M. and B.M. Burr, 2011. A field guide to freshwater fishes of North America north of Mexico. Boston : Houghton Mifflin Harcourt, 663p."
    },
    {
      "id": 11,
      "common_name": "black bullhead",
      "scientific_name": "ameiurus melas",
      "type": "catfish",
      "environment": "freshwater",
      "distribution": "na",
      "length": 66,
      "weight": 3.6,
      "depth_min": 10,
      "depth_max": null,
      "temp_min": 36,
      "temp_max": 91,
      "image_attribution": "",
      "ref": "Page, L.M. and B.M. Burr, 1991. A field guide to freshwater fishes of North America north of Mexico. Houghton Mifflin Company, Boston. 432p."
    },
    {
      "id": 12,
      "common_name": "yellow bullhead",
      "scientific_name": "ameiurus natalis",
      "type": "catfish",
      "environment": "freshwater",
      "distribution": "na",
      "length": 60,
      "weight": 1.9,
      "depth_min": 10,
      "depth_max": null,
      "temp_min": null,
      "temp_max": null,
      "image_attribution": "",
      "ref": "Page, L.M. and B.M. Burr, 1991. A field guide to freshwater fishes of North America north of Mexico. Houghton Mifflin Company, Boston. 432p."
    }
  ]
}